15:28:10.0965484 I =======================LOAD=======================
15:28:10.0965484 I VSI Reporting Started
15:28:10.0995484 I ==================FILE WATCHER ON=================
15:28:29.2295484 I XML translations read in successfully
15:28:29.2355484 I READ:         Agilysys & (Europe) Ltd
15:28:29.2355484 I READ:            Development Team
15:28:29.2355484 I READ:                IG 6.4.3
15:28:29.2355484 I READ:    20/3/2015                   15:20
15:28:29.2355484 I READ:    =================================
15:28:29.2355484 I READ:                 Dev PC
15:28:29.2355484 I READ:    Check: 80019                     
15:28:29.2355484 I READ:    Server: Agilysys     
15:28:29.2355484 I READ:    Terminal: 8
15:28:29.2355484 I READ:    =================================
15:28:29.2355484 I READ:              Regular Check
15:28:29.2355484 I READ:       *  1 Coors Light          5.00
15:28:29.2355484 I Translation missing for:       *  1 Coors Light          5.00
15:28:29.2355484 I READ:       *  1 Coors                4.00
15:28:29.2355484 I Translation missing for:       *  1 Coors                4.00
15:28:29.2355484 I READ:       *  1 Bud Light            3.00
15:28:29.2355484 I READ:       *  1 Bud                  0.01
15:28:29.2355484 I Translation missing for:       *  1 Bud                  0.01
15:28:29.2355484 I READ:    
15:28:29.2355484 I READ:              Subtotal        12.01  
15:28:29.2355484 I READ:                 Total        12.01  
15:28:29.2355484 I READ:    
15:28:29.2355484 I READ:    
15:28:29.2355484 I READ:    Cash                        12.01
15:28:29.2355484 I READ:    
15:28:29.2355484 I READ:           GRAND TOTAL         12.01
15:28:29.2355484 I READ:    
15:28:29.2365484 I READ:    =================================
15:28:29.2365484 I READ:    T8 C1 20/3/2015 15:20
15:28:29.2365484 I READ:    =================================
15:28:29.2365484 I Translated receipt generated at 3/20/2015 3:28:29 PM
15:28:29.2385484 I Translated receipt successfully saved at 3/20/2015 3:28:29 PM
15:28:29.3285484 I PRINT:         Agilysys & (Europe) Ltd
15:28:29.4155484 I PRINT:            Development Team
15:28:29.4995484 I PRINT:                IG 6.4.3
15:28:29.5955484 I PRINT:    20/3/2015                   15:20
15:28:29.6865484 I PRINT:    =================================
15:28:29.7985484 I PRINT:                 Dev PC
15:28:29.8875484 I PRINT:    Check: 80019                     
15:28:29.9775484 I PRINT:    Server: Agilysys     
15:28:30.0725484 I PRINT:    Terminal: 8
15:28:30.1625484 I PRINT:    =================================
15:28:30.2685484 I PRINT:              Regular Check
15:28:30.3535484 I PRINT:       *  1 Coors Light          5.00
15:28:30.4375484 I PRINT: No translation found
15:28:30.5225484 I PRINT:       *  1 Coors                4.00
15:28:30.6085484 I PRINT: No translation found
15:28:30.7015484 I PRINT:       *  1 Bud Light            3.00
15:28:30.7935484 I PRINT:            بيرة
15:28:30.8815484 I PRINT:       *  1 Bud                  0.01
15:28:30.9685484 I PRINT: No translation found
15:28:31.0625484 I PRINT:    
15:28:31.1575484 I PRINT:              Subtotal        12.01  
15:28:31.2435484 I PRINT:                 Total        12.01  
15:28:31.3285484 I PRINT:    
15:28:31.4145484 I PRINT:    
15:28:31.5015484 I PRINT:    Cash                        12.01
15:28:31.5895484 I PRINT:    
15:28:31.6725484 I PRINT:           GRAND TOTAL         12.01
15:28:31.7665484 I PRINT:    
15:28:31.8595484 I PRINT:    =================================
15:28:31.9555484 I PRINT:    T8 C1 20/3/2015 15:20
15:28:32.0435484 I PRINT:    =================================
15:31:46.0057253 I XML translations read in successfully
15:31:46.0057253 I READ:         Agilysys & (Europe) Ltd
15:31:46.0057253 I READ:            Development Team
15:31:46.0067254 I READ:                IG 4.4.3
15:31:46.0067254 I READ:    20/3/2015                   15:29
15:31:46.0067254 I READ:    =================================
15:31:46.0067254 I READ:                 Dev PC
15:31:46.0067254 I READ:    Check: 80020                     
15:31:46.0067254 I READ:    Server: Agilysys     
15:31:46.0067254 I READ:    Terminal: 8
15:31:46.0067254 I READ:    =================================
15:31:46.0067254 I READ:              Regular Check
15:31:46.0067254 I READ:       *  1 Absolute             2.00
15:31:46.0077255 I Translation missing for:       *  1 Absolute             2.00
15:31:46.0077255 I READ:       *  1 Absolute Citron      2.00
15:31:46.0077255 I Translation missing for:       *  1 Absolute Citron      2.00
15:31:46.0077255 I READ:       *  1 Stolichnaya          2.00
15:31:46.0077255 I Translation missing for:       *  1 Stolichnaya          2.00
15:31:46.0077255 I READ:       *  1 Flavored Stoli       2.00
15:31:46.0077255 I Translation missing for:       *  1 Flavored Stoli       2.00
15:31:46.0077255 I READ:       *  1 Well Vodka           2.00
15:31:46.0077255 I Translation missing for:       *  1 Well Vodka           2.00
15:31:46.0077255 I READ:       *  1 Bud Light            3.00
15:31:46.0077255 I READ:    
15:31:46.0077255 I READ:              Subtotal        13.00  
15:31:46.0087256 I READ:                 Total        13.00  
15:31:46.0087256 I READ:    
15:31:46.0087256 I READ:    
15:31:46.0087256 I READ:    Cash                        13.00
15:31:46.0087256 I READ:    
15:31:46.0087256 I READ:           GRAND TOTAL         13.00
15:31:46.0087256 I READ:    
15:31:46.0087256 I READ:    =================================
15:31:46.0087256 I READ:    T8 C1 20/3/2015 15:31
15:31:46.0087256 I READ:    =================================
15:31:46.0087256 I Translated receipt generated at 3/20/2015 3:31:46 PM
15:31:46.0107258 I Translated receipt successfully saved at 3/20/2015 3:31:46 PM
15:31:46.1017349 I PRINT:         Agilysys & (Europe) Ltd
15:31:46.1867434 I PRINT:            Development Team
15:31:46.2737521 I PRINT:                IG 4.4.3
15:31:46.3597607 I PRINT:    20/3/2015                   15:29
15:31:46.4487696 I PRINT:    =================================
15:31:46.5907838 I PRINT:                 Dev PC
15:31:46.6737921 I PRINT:    Check: 80020                     
15:31:46.7608008 I PRINT:    Server: Agilysys     
15:31:46.8618109 I PRINT:    Terminal: 8
15:31:46.9558203 I PRINT:    =================================
15:31:47.0598307 I PRINT:              Regular Check
15:31:47.1518399 I PRINT:       *  1 Absolute             2.00
15:31:47.2388486 I PRINT: No translation found
15:31:47.3228570 I PRINT:       *  1 Absolute Citron      2.00
15:31:47.4078655 I PRINT: No translation found
15:31:47.4928740 I PRINT:       *  1 Stolichnaya          2.00
15:31:47.5768824 I PRINT: No translation found
15:31:47.6618909 I PRINT:       *  1 Flavored Stoli       2.00
15:31:47.7468994 I PRINT: No translation found
15:31:47.8319079 I PRINT:       *  1 Well Vodka           2.00
15:31:47.9219169 I PRINT: No translation found
15:31:48.0119259 I PRINT:       *  1 Bud Light            3.00
15:31:48.0989346 I PRINT:            بيرة
15:31:48.1879435 I PRINT:    
15:31:48.2759523 I PRINT:              Subtotal        13.00  
15:31:48.3819629 I PRINT:                 Total        13.00  
15:31:48.4719719 I PRINT:    
15:31:48.5689816 I PRINT:    
15:31:48.6549902 I PRINT:    Cash                        13.00
15:31:48.7419989 I PRINT:    
15:31:48.8270074 I PRINT:           GRAND TOTAL         13.00
15:31:48.9110158 I PRINT:    
15:31:48.9960243 I PRINT:    =================================
15:31:49.0800327 I PRINT:    T8 C1 20/3/2015 15:31
15:31:49.1650412 I PRINT:    =================================
16:46:11.3614599 I =================FILE WATCHER OFF=================
16:46:43.9807215 I =======================LOAD=======================
16:46:43.9807215 I VSI Reporting Started
16:46:43.9827217 I ==================FILE WATCHER ON=================
16:47:13.2386464 I XML translations read in successfully
16:47:21.6044829 I READ:         Agilysys & (Europe) Ltd
16:47:32.6375861 I READ:            Development Team
16:47:32.6385862 I READ:                IG 4.4.3
16:47:32.6385862 I READ:    20/3/2015                   16:46
16:47:32.6385862 I READ:    =================================
16:47:32.6385862 I READ:                 Dev PC
16:47:32.6385862 I READ:    Check: 80021                     
16:47:32.6385862 I READ:    Server: Agilysys     
16:47:32.6385862 I READ:    Terminal: 8
16:47:32.6385862 I READ:    =================================
16:47:32.6385862 I READ:              Regular Check
16:47:32.6385862 I READ:       *  1 Coors Light          5.00
16:47:32.6415865 I Translation missing for:       *  1 Coors Light          5.00
16:47:32.6435867 I READ:       *  1 Coors Light          5.00
16:47:32.6435867 I Translation missing for:       *  1 Coors Light          5.00
16:47:32.6435867 I READ:       *  1 Coors                4.00
16:47:32.6445868 I Translation missing for:       *  1 Coors                4.00
16:47:32.6445868 I READ:       *  1 Coors                4.00
16:47:32.6445868 I Translation missing for:       *  1 Coors                4.00
16:47:32.6445868 I READ:    
16:47:32.6445868 I READ:              Subtotal        18.00  
16:47:32.6445868 I READ:                 Total        18.00  
16:47:32.6445868 I READ:    
16:47:32.6445868 I READ:    
16:47:32.6445868 I READ:    Cash                        18.00
16:47:32.6445868 I READ:    
16:47:32.6445868 I READ:           GRAND TOTAL         18.00
16:47:32.6445868 I READ:    
16:47:32.6445868 I READ:    =================================
16:47:32.6445868 I READ:    T8 C1 20/3/2015 16:47
16:47:32.6445868 I READ:    =================================
16:47:52.6145836 I Read finished 20/03/2015 16:47:52
16:47:54.2067428 I Translated receipt successfully saved at 20/03/2015 16:47:54
16:47:54.8068028 I PRINT:         Agilysys & (Europe) Ltd
16:47:54.8988120 I PRINT:            Development Team
16:47:54.9928214 I PRINT:                IG 4.4.3
16:47:55.0848306 I PRINT:    20/3/2015                   16:46
16:47:55.1788400 I PRINT:    =================================
16:47:55.2718493 I PRINT:                 Dev PC
16:47:55.3658587 I PRINT:    Check: 80021                     
16:47:55.4568678 I PRINT:    Server: Agilysys     
16:47:55.5578779 I PRINT:    Terminal: 8
16:47:55.6498871 I PRINT:    =================================
16:47:55.7408962 I PRINT:              Regular Check
16:47:55.8319053 I PRINT:       *  1 Coors Light          5.00
16:47:55.9239145 I PRINT: No translation found
16:47:56.0159237 I PRINT:       *  1 Coors Light          5.00
16:47:56.1109332 I PRINT: No translation found
16:47:56.1979419 I PRINT:       *  1 Coors                4.00
16:47:56.2909512 I PRINT: No translation found
16:47:56.3849606 I PRINT:       *  1 Coors                4.00
16:47:56.4809702 I PRINT: No translation found
16:47:56.5719793 I PRINT:    
16:47:56.6639885 I PRINT:              Subtotal        18.00  
16:47:56.7759997 I PRINT:                 Total        18.00  
16:47:56.8730094 I PRINT:    
16:47:56.9560177 I PRINT:    
16:47:57.0520273 I PRINT:    Cash                        18.00
16:47:57.1400361 I PRINT:    
16:47:57.2290450 I PRINT:           GRAND TOTAL         18.00
16:47:57.3210542 I PRINT:    
16:47:57.4160637 I PRINT:    =================================
16:47:57.5070728 I PRINT:    T8 C1 20/3/2015 16:47
16:47:57.6000821 I PRINT:    =================================
17:02:14.4067524 I =======================LOAD=======================
17:02:14.4067524 I VSI Reporting Started
17:02:26.3609477 I =======================LOAD=======================
17:02:26.3609477 I VSI Reporting Started
17:02:26.3619478 I ==================FILE WATCHER ON=================
17:03:00.6953808 I XML translations read in successfully
17:03:41.6254734 I Read attempt fail: 1
17:04:01.0854192 I Read attempt fail: 2
17:04:18.2511356 I Read attempt fail: 3
17:04:25.4508555 I READ:         Agilysys & (Europe) Ltd
17:04:25.4508555 I READ:            Development Team
17:04:25.4508555 I READ:                IG 5.4.3
17:04:25.4518556 I READ:    20/3/2015                   16:46
17:04:25.4518556 I READ:    =================================
17:04:25.4518556 I READ:                 Dev PC
17:04:25.4518556 I READ:    Check: 80021                     
17:04:25.4518556 I READ:    Server: Agilysys     
17:04:25.4518556 I READ:    Terminal: 8
17:04:25.4518556 I READ:    =================================
17:04:25.4518556 I READ:              Regular Check
17:04:25.4518556 I READ:       *  1 Coors Light          5.00
17:04:25.4538558 I Translation missing for:       *  1 Coors Light          5.00
17:04:25.4538558 I READ:       *  1 Coors Light          5.00
17:04:25.4548559 I Translation missing for:       *  1 Coors Light          5.00
17:04:25.4548559 I READ:       *  1 Coors                4.00
17:04:25.4548559 I Translation missing for:       *  1 Coors                4.00
17:04:25.4548559 I READ:       *  1 Coors                4.00
17:04:25.4548559 I Translation missing for:       *  1 Coors                4.00
17:04:25.4548559 I READ:    
17:04:25.4548559 I READ:              Subtotal        18.00  
17:04:25.4548559 I READ:                 Total        18.00  
17:04:25.4548559 I READ:    
17:04:25.4548559 I READ:    
17:04:25.4548559 I READ:    Cash                        18.00
17:04:25.4548559 I READ:    
17:04:25.4548559 I READ:           GRAND TOTAL         18.00
17:04:25.4548559 I READ:    
17:04:25.4548559 I READ:    =================================
17:04:25.4548559 I READ:    T8 C1 20/3/2015 16:47
17:04:25.4548559 I READ:    =================================
17:16:55.8288834 I =======================LOAD=======================
17:16:55.8288834 I VSI Reporting Started
17:16:55.8308836 I ==================FILE WATCHER ON=================
17:17:12.3725376 I XML translations read in successfully
