16:53:35.2798453 I =======================LOAD=======================
16:53:35.3048478 I Pennies Reporting Started
16:53:35.3068480 I ==================FILE WATCHER ON=================
16:54:05.0568227 I XML translations read in successfully
16:54:05.1428313 I Translation missing for:       1 Absolute Citron      0.00
16:54:05.1428313 I Translation missing for:       1 Absolute             0.00
16:54:05.1428313 I Translation missing for:       1 Ketel One            0.00
16:54:05.1438314 I Translated receipt generated at 12/03/2015 16:54:05
16:54:05.1528323 I Translated receipt successfully saved at 12/03/2015 16:54:05
16:54:05.3408511 I Open COM port error
16:54:05.6208791 I Open COM port error
16:54:05.8909061 I Open COM port error
16:54:06.1529323 I Open COM port error
16:54:06.4029573 I Could not print receipt
16:54:06.4029573 I PRINT:       Agilysys (Europe) Ltd
16:54:06.4169587 I Open COM port error
16:54:06.6979868 I Open COM port error
16:54:06.9810151 I Open COM port error
16:54:07.2600430 I Open COM port error
16:54:07.5100680 I Could not print receipt
16:54:07.5100680 I PRINT:         Development Team
16:54:07.5280698 I Open COM port error
16:54:07.8140984 I Open COM port error
16:54:08.0741244 I Open COM port error
16:54:08.3571527 I Open COM port error
16:54:08.6071777 I Could not print receipt
16:54:08.6071777 I PRINT:             IG 4.4.3
16:54:08.6441814 I Open COM port error
16:54:08.9252095 I Open COM port error
16:54:09.1962366 I Open COM port error
16:54:09.4832653 I Open COM port error
16:54:09.7332903 I Could not print receipt
16:54:09.7332903 I PRINT: 29/1/2014                    9:35
16:54:09.7672937 I Open COM port error
16:54:10.0353205 I Open COM port error
16:54:10.3173487 I Open COM port error
16:54:10.5993769 I Open COM port error
16:54:10.8494019 I Could not print receipt
16:54:10.8494019 I PRINT: =================================
16:54:10.8664036 I Open COM port error
16:54:11.1384308 I Open COM port error
16:54:11.4144584 I Open COM port error
16:54:11.7044874 I Open COM port error
16:54:11.9545124 I Could not print receipt
16:54:11.9545124 I PRINT:              Dev PC
16:54:11.9665136 I Open COM port error
16:54:12.2465416 I Open COM port error
16:54:12.5315701 I Open COM port error
16:54:12.8215991 I Open COM port error
16:54:13.0716241 I Could not print receipt
16:54:13.0716241 I PRINT: Check:  10006       Table: 44SeatCourse
16:54:13.0826252 I Open COM port error
16:54:13.3586528 I Open COM port error
16:54:13.6416811 I Open COM port error
16:54:13.9177087 I Open COM port error
16:54:14.1677337 I Could not print receipt
16:54:14.1677337 I PRINT: Server: Agilysys    Guests: 1
16:54:14.1987368 I Open COM port error
16:54:14.4817651 I Open COM port error
16:54:14.7667936 I Open COM port error
16:54:15.0458215 I Open COM port error
16:54:15.2958465 I Could not print receipt
16:54:15.2958465 I PRINT: Terminal: 1
16:54:15.3328502 I Open COM port error
16:54:15.6118781 I Open COM port error
16:54:15.8949064 I Open COM port error
16:54:16.1789348 I Open COM port error
16:54:16.4289598 I Could not print receipt
16:54:16.4289598 I PRINT: =================================
16:54:16.4649634 I Open COM port error
16:54:16.7469916 I Open COM port error
16:54:17.0520221 I Open COM port error
16:54:17.3380507 I Open COM port error
16:54:17.5880757 I Could not print receipt
16:54:17.5880757 I PRINT:           Regular Check
16:54:17.6220791 I Open COM port error
16:54:17.9041073 I Open COM port error
16:54:18.1891358 I Open COM port error
16:54:18.4751644 I Open COM port error
16:54:18.7251894 I Could not print receipt
16:54:18.7251894 I PRINT:       1 Absolute Citron      0.00
16:54:18.7571926 I Open COM port error
16:54:19.0372206 I Open COM port error
16:54:19.3182487 I Open COM port error
16:54:19.5992768 I Open COM port error
16:54:19.8493018 I Could not print receipt
16:54:19.8493018 I PRINT: No translation found
16:54:19.8813050 I Open COM port error
16:54:20.1633332 I Open COM port error
16:54:20.4423611 I Open COM port error
16:54:20.7293898 I Open COM port error
16:54:20.9794148 I Could not print receipt
16:54:20.9794148 I PRINT:       1 Smirnoff             2.00
16:54:21.0114180 I Open COM port error
16:54:21.2934462 I Open COM port error
16:54:21.5774746 I Open COM port error
16:54:21.8595028 I Open COM port error
16:54:22.1105279 I Could not print receipt
16:54:22.1105279 I PRINT:         فودكا
16:54:22.1315300 I Open COM port error
16:54:22.4165585 I Open COM port error
16:54:22.7055874 I Open COM port error
16:54:22.9896158 I Open COM port error
16:54:23.2396408 I Could not print receipt
16:54:23.2396408 I PRINT:       1 Absolute             0.00
16:54:23.2696438 I Open COM port error
16:54:23.5506719 I Open COM port error
16:54:23.8337002 I Open COM port error
16:54:24.1157284 I Open COM port error
16:54:24.3657534 I Could not print receipt
16:54:24.3657534 I PRINT: No translation found
16:54:24.3987567 I Open COM port error
16:54:24.6807849 I Open COM port error
16:54:24.9658134 I Open COM port error
16:54:25.2438412 I Open COM port error
16:54:25.4938662 I Could not print receipt
16:54:25.4938662 I PRINT:       1 Ketel One            0.00
16:54:25.5228691 I Open COM port error
16:54:25.8078976 I Open COM port error
16:54:26.0679236 I Open COM port error
16:54:26.3499518 I Open COM port error
16:54:26.5999768 I Could not print receipt
16:54:26.5999768 I PRINT: No translation found
16:54:26.6309799 I Open COM port error
16:54:26.9170085 I Open COM port error
16:54:27.2030371 I Open COM port error
16:54:27.4870655 I Open COM port error
16:54:27.7370905 I Could not print receipt
16:54:27.7370905 I PRINT:       1 Jack Daniels         4.00
16:54:27.7700938 I Open COM port error
16:54:28.0381206 I Open COM port error
16:54:28.3201488 I Open COM port error
16:54:28.6001768 I Open COM port error
16:54:28.8502018 I Could not print receipt
16:54:28.8502018 I PRINT:         moo3
16:54:28.8822050 I Open COM port error
16:54:29.1672335 I Open COM port error
16:54:29.4542622 I Open COM port error
16:54:29.7392907 I Open COM port error
16:54:29.9893157 I Could not print receipt
16:54:29.9893157 I PRINT: 
16:54:30.0183186 I Open COM port error
16:54:30.3053473 I Open COM port error
16:54:30.5923760 I Open COM port error
16:54:30.8764044 I Open COM port error
16:54:31.1264294 I Could not print receipt
16:54:31.1264294 I PRINT:           Subtotal         6.00  
16:54:31.1464314 I Open COM port error
16:54:31.4284596 I Open COM port error
16:54:31.7094877 I Open COM port error
16:54:31.9905158 I Open COM port error
16:54:32.2405408 I Could not print receipt
16:54:32.2405408 I PRINT:              Total         6.00  
16:54:32.2665434 I Open COM port error
16:54:32.5525720 I Open COM port error
16:54:32.8386006 I Open COM port error
16:54:33.1246292 I Open COM port error
16:54:33.3746542 I Could not print receipt
16:54:33.3746542 I PRINT: 
16:54:33.4046572 I Open COM port error
16:54:33.6936861 I Open COM port error
16:54:33.9777145 I Open COM port error
16:54:34.2647432 I Open COM port error
16:54:34.5147682 I Could not print receipt
16:54:34.5147682 I PRINT: 
16:54:34.5447712 I Open COM port error
16:54:34.8277995 I Open COM port error
16:54:35.0938261 I Open COM port error
16:54:35.3788546 I Open COM port error
16:54:35.6288796 I Could not print receipt
16:54:35.6288796 I PRINT: Cash                         6.00
16:54:35.6608828 I Open COM port error
16:54:35.9459113 I Open COM port error
16:54:36.2249392 I Open COM port error
16:54:36.5129680 I Open COM port error
16:54:36.7639931 I Could not print receipt
16:54:36.7639931 I PRINT: 
16:54:36.7929960 I Open COM port error
16:54:37.0530220 I Open COM port error
16:54:37.3210488 I Open COM port error
16:54:37.6020769 I Open COM port error
16:54:37.8521019 I Could not print receipt
16:54:37.8521019 I PRINT:        GRAND TOTAL          6.00
16:54:37.8901057 I Open COM port error
16:54:38.1741341 I Open COM port error
16:54:38.4551622 I Open COM port error
16:54:38.7241891 I Open COM port error
16:54:38.9742141 I Could not print receipt
16:54:38.9742141 I PRINT: 
16:54:39.0092176 I Open COM port error
16:54:39.2922459 I Open COM port error
16:54:39.5762743 I Open COM port error
16:54:39.8633030 I Open COM port error
16:54:40.1133280 I Could not print receipt
16:54:40.1133280 I PRINT: =================================
16:54:40.1473314 I Open COM port error
16:54:40.4293596 I Open COM port error
16:54:40.7093876 I Open COM port error
16:54:40.9924159 I Open COM port error
16:54:41.2424409 I Could not print receipt
16:54:41.2424409 I PRINT: T1 C1 29/1/2014 09:32
16:54:41.2714438 I Open COM port error
16:54:41.5564723 I Open COM port error
16:54:41.8345001 I Open COM port error
16:54:42.1215288 I Open COM port error
16:54:42.3715538 I Could not print receipt
16:54:42.3715538 I PRINT: =================================
16:55:39.1632324 I =======================LOAD=======================
16:55:39.1632324 I Pennies Reporting Started
16:55:39.1652326 I ==================FILE WATCHER ON=================
16:55:52.1895349 I XML translations read in successfully
16:55:52.2005360 I Translation missing for:       1 Absolute Citron      0.00
16:55:52.2015361 I Translation missing for:       1 Absolute             0.00
16:55:52.2015361 I Translation missing for:       1 Ketel One            0.00
16:55:52.2015361 I Translated receipt generated at 12/03/2015 16:55:52
16:55:52.2055365 I Translated receipt successfully saved at 12/03/2015 16:55:52
16:55:52.4915651 I PRINT:       Agilysys (Europe) Ltd
16:55:52.5845744 I PRINT:         Development Team
16:55:52.6785838 I PRINT:             IG 4.4.3
16:55:52.7795939 I PRINT: 29/1/2014                    9:36
16:55:52.8736033 I PRINT: =================================
16:55:52.9666126 I PRINT:              Dev PC
16:55:53.0996259 I PRINT: Check:  10006       Table: 44SeatCourse
16:55:53.2016361 I PRINT: Server: Agilysys    Guests: 1
16:55:53.2926452 I PRINT: Terminal: 1
16:55:53.3796539 I PRINT: =================================
16:55:53.4696629 I PRINT:           Regular Check
16:55:53.5616721 I PRINT:       1 Absolute Citron      0.00
16:55:53.6596819 I PRINT: No translation found
16:55:53.7546914 I PRINT:       1 Smirnoff             2.00
16:55:53.8477007 I PRINT:         فودكا
16:55:53.9347094 I PRINT:       1 Absolute             0.00
16:55:54.0297189 I PRINT: No translation found
16:55:54.1217281 I PRINT:       1 Ketel One            0.00
16:55:54.2147374 I PRINT: No translation found
16:55:54.3057465 I PRINT:       1 Jack Daniels         4.00
16:55:54.4627622 I PRINT:         moo3
16:55:54.5567716 I PRINT: 
16:55:54.6477807 I PRINT:           Subtotal         6.00  
16:55:54.7407900 I PRINT:              Total         6.00  
16:55:54.8357995 I PRINT: 
16:55:54.9338093 I PRINT: 
16:55:55.0278187 I PRINT: Cash                         6.00
16:55:55.1148274 I PRINT: 
16:55:55.2068366 I PRINT:        GRAND TOTAL          6.00
16:55:55.2988458 I PRINT: 
16:55:55.3938553 I PRINT: =================================
16:55:55.4868646 I PRINT: T1 C1 29/1/2014 09:32
16:55:55.5808740 I PRINT: =================================
17:04:18.8681977 I =======================LOAD=======================
17:04:18.8681977 I Pennies Reporting Started
17:04:18.8701979 I ==================FILE WATCHER ON=================
17:04:37.8560963 I XML translations read in successfully
17:04:37.8610968 I Translation missing for:       1 Absolute Citron      0.00
17:04:37.8620969 I Translation missing for:       1 Absolute             0.00
17:04:37.8620969 I Translation missing for:       1 Ketel One            0.00
17:04:37.8620969 I Translated receipt generated at 12/03/2015 17:04:37
17:04:37.8630970 I Translated receipt successfully saved at 12/03/2015 17:04:37
17:04:37.9581065 I PRINT:       Agilysys (Europe) Ltd
17:04:38.0851192 I PRINT:         Development Team
17:04:38.1801287 I PRINT:             IG 4.4.3
17:04:38.2641371 I PRINT: 29/1/2014                    9:37
17:04:38.3511458 I PRINT: =================================
17:04:38.4441551 I PRINT:              Dev PC
17:04:38.5471654 I PRINT: Check:  10006       Table: 44SeatCourse
17:04:38.6411748 I PRINT: Server: Agilysys    Guests: 1
17:04:38.7281835 I PRINT: Terminal: 1
17:04:38.8271934 I PRINT: =================================
17:04:38.9492056 I PRINT:           Regular Check
17:04:39.0422149 I PRINT:       1 Absolute Citron      0.00
17:04:39.1342241 I PRINT: No translation found
17:04:39.2282335 I PRINT:       1 Smirnoff             2.00
17:04:39.3252432 I PRINT:         فودكا
17:04:39.4172524 I PRINT:       1 Absolute             0.00
17:04:39.5132620 I PRINT: No translation found
17:04:39.6072714 I PRINT:       1 Ketel One            0.00
17:04:39.6972804 I PRINT: No translation found
17:04:39.7912898 I PRINT:       1 Jack Daniels         4.00
17:04:39.8872994 I PRINT:         moo3
17:04:39.9823089 I PRINT: 
17:04:40.0913198 I PRINT:           Subtotal         6.00  
17:04:40.1753282 I PRINT:              Total         6.00  
17:04:40.2653372 I PRINT: 
17:04:40.3593466 I PRINT: 
17:04:40.4533560 I PRINT: Cash                         6.00
17:04:40.5493656 I PRINT: 
17:04:40.6393746 I PRINT:        GRAND TOTAL          6.00
17:04:40.7243831 I PRINT: 
17:04:40.8193926 I PRINT: =================================
17:04:40.9124019 I PRINT: T1 C1 29/1/2014 09:32
17:04:41.0064113 I PRINT: =================================
17:11:30.4153481 I =======================LOAD=======================
17:11:30.4153481 I Pennies Reporting Started
17:11:30.4183484 I ==================FILE WATCHER ON=================
17:11:42.5545619 I XML translations read in successfully
17:11:42.5585623 I Translation missing for:       1 Absolute Citron      0.00
17:11:42.5585623 I Translation missing for:       1 Absolute             0.00
17:11:42.5585623 I Translation missing for:       1 Ketel One            0.00
17:11:42.5585623 I Translated receipt generated at 12/03/2015 17:11:42
17:11:42.5595624 I Translated receipt successfully saved at 12/03/2015 17:11:42
17:11:42.6475712 I PRINT:       Agilysys (Europe) Ltd
17:11:42.7445809 I PRINT:         Development Team
17:11:42.8435908 I PRINT:             IG 4.4.3
17:11:42.9386003 I PRINT: 29/1/2014                    9:38
17:11:43.0316096 I PRINT: =================================
17:11:43.1656230 I PRINT:              Dev PC
17:11:43.2586323 I PRINT: Check:  10006       Table: 44SeatCourse
17:11:43.3476412 I PRINT: Server: Agilysys    Guests: 1
17:11:43.4406505 I PRINT: Terminal: 1
17:11:43.5726637 I PRINT: =================================
17:11:43.6576722 I PRINT:           Regular Check
17:11:43.7466811 I PRINT:       1 Absolute Citron      0.00
17:11:43.8346899 I PRINT: No translation found
17:11:43.9246989 I PRINT:       1 Smirnoff             2.00
17:11:44.0177082 I PRINT:         فودكا
17:11:44.1267191 I PRINT:       1 Absolute             0.00
17:11:44.2117276 I PRINT: No translation found
17:11:44.3057370 I PRINT:       1 Ketel One            0.00
17:11:44.3987463 I PRINT: No translation found
17:11:44.4897554 I PRINT:       1 Jack Daniels         4.00
17:11:44.5827647 I PRINT:         moo3
17:11:44.6767741 I PRINT: 
17:11:44.7747839 I PRINT:           Subtotal         6.00  
17:11:44.8667931 I PRINT:              Total         6.00  
17:11:44.9598024 I PRINT: 
17:11:45.0488113 I PRINT: 
17:11:45.1488213 I PRINT: Cash                         6.00
17:11:45.2468311 I PRINT: 
17:11:45.3378402 I PRINT:        GRAND TOTAL          6.00
17:11:45.4308495 I PRINT: 
17:11:45.5258590 I PRINT: =================================
17:11:45.6228687 I PRINT: T1 C1 29/1/2014 09:32
17:11:45.7168781 I PRINT: =================================
17:12:41.0414100 I XML translations read in successfully
17:12:41.0414100 I Translation missing for:       1 Absolute Citron      0.00
17:12:41.0414100 I Translation missing for:       1 Absolute             0.00
17:12:41.0414100 I Translation missing for:       1 Ketel One            0.00
17:12:41.0414100 I Translated receipt generated at 12/03/2015 17:12:41
17:12:41.0424101 I Translated receipt successfully saved at 12/03/2015 17:12:41
17:12:41.1574216 I PRINT:       Agilysys (Europe) Ltd
17:12:41.2484307 I PRINT:         Development Team
17:12:41.3364395 I PRINT:             IG 4.4.3
17:12:41.4334492 I PRINT: 29/1/2014                    9:39
17:12:41.5254584 I PRINT: =================================
17:12:41.6454704 I PRINT:              Dev PC
17:12:41.8124871 I PRINT: Check:  10006       Table: 44SeatCourse
17:12:41.8974956 I PRINT: Server: Agilysys    Guests: 1
17:12:42.0135072 I PRINT: Terminal: 1
17:12:42.0975156 I PRINT: =================================
17:12:42.1905249 I PRINT:           Regular Check
17:12:42.2785337 I PRINT:       1 Absolute Citron      0.00
17:12:42.3785437 I PRINT: No translation found
17:12:42.4825541 I PRINT:       1 Smirnoff             2.00
17:12:42.5685627 I PRINT:         فودكا
17:12:42.6655724 I PRINT:       1 Absolute             0.00
17:12:42.7645823 I PRINT: No translation found
17:12:42.8525911 I PRINT:       1 Ketel One            0.00
17:12:42.9385997 I PRINT: No translation found
17:12:43.0356094 I PRINT:       1 Jack Daniels         4.00
17:12:43.1666225 I PRINT:         moo3
17:12:43.2556314 I PRINT: 
17:12:43.3446403 I PRINT:           Subtotal         6.00  
17:12:43.4386497 I PRINT:              Total         6.00  
17:12:43.5356594 I PRINT: 
17:12:43.6286687 I PRINT: 
17:12:43.7236782 I PRINT: Cash                         6.00
17:12:43.8166875 I PRINT: 
17:12:43.9186977 I PRINT:        GRAND TOTAL          6.00
17:12:44.0097068 I PRINT: 
17:12:44.1187177 I PRINT: =================================
17:12:44.2107269 I PRINT: T1 C1 29/1/2014 09:32
17:12:44.3087367 I PRINT: =================================
